<?xml version="1.0" encoding="UTF-8"?>
<svg width="20px" height="20px" viewBox="0 0 20 20" version="1.1" xmlns="http://www.w3.org/2000/svg" xmlns:xlink="http://www.w3.org/1999/xlink">
    <!-- Generator: Sketch 58 (84663) - https://sketch.com -->
    <title>icons/add</title>
    <desc>Created with Sketch.</desc>
    <g id="Page-1" stroke="none" stroke-width="1" fill="none" fill-rule="evenodd" opacity="0.5">
        <g id="GVA-Admin-Panel-2" transform="translate(-1104.000000, -576.000000)">
            <g id="2" transform="translate(235.000000, 571.000000)">
                <g id="Group-5">
                    <g id="icons/add" transform="translate(869.000000, 5.000000)">
                        <circle id="Oval" stroke="#0C2C3A" stroke-width="2" cx="10" cy="10" r="9"></circle>
                        <rect id="Rectangle" fill="#0C2C3A" x="9" y="6" width="2" height="8" rx="1"></rect>
                        <rect id="Rectangle-Copy-4" fill="#0C2C3A" transform="translate(10.000000, 10.000000) rotate(90.000000) translate(-10.000000, -10.000000) " x="9" y="6" width="2" height="8" rx="1"></rect>
                    </g>
                </g>
            </g>
        </g>
    </g>
</svg>